<?xml version="1.0" encoding="UTF-8" standalone="no"?>
<svg
   xmlns:dc="http://purl.org/dc/elements/1.1/"
   xmlns:cc="http://creativecommons.org/ns#"
   xmlns:rdf="http://www.w3.org/1999/02/22-rdf-syntax-ns#"
   xmlns:svg="http://www.w3.org/2000/svg"
   xmlns="http://www.w3.org/2000/svg"
   xmlns:sodipodi="http://sodipodi.sourceforge.net/DTD/sodipodi-0.dtd"
   xmlns:inkscape="http://www.inkscape.org/namespaces/inkscape"
   viewBox="0 0 24 24"
   width="24"
   height="24"
   version="1.1"
   id="svg6"
   sodipodi:docname="eye-fill.svg"
   inkscape:version="1.0.1 (3bc2e813f5, 2020-09-07)">
  <metadata
     id="metadata12">
    <rdf:RDF>
      <cc:Work
         rdf:about="">
        <dc:format>image/svg+xml</dc:format>
        <dc:type
           rdf:resource="http://purl.org/dc/dcmitype/StillImage" />
      </cc:Work>
    </rdf:RDF>
  </metadata>
  <defs
     id="defs10" />
  <sodipodi:namedview
     pagecolor="#ffffff"
     bordercolor="#666666"
     borderopacity="1"
     objecttolerance="10"
     gridtolerance="10"
     guidetolerance="10"
     inkscape:pageopacity="0"
     inkscape:pageshadow="2"
     inkscape:window-width="1846"
     inkscape:window-height="1057"
     id="namedview8"
     showgrid="false"
     inkscape:zoom="18.541667"
     inkscape:cx="15.80657"
     inkscape:cy="17.68638"
     inkscape:window-x="66"
     inkscape:window-y="-8"
     inkscape:window-maximized="1"
     inkscape:current-layer="svg6" />
  <path
     fill="none"
     d="M 4.2606742,4.2606742 H 19.739326 V 19.739326 H 4.2606742 Z"
     id="path2"
     style="stroke-width:0.644944" />
  <path
     d="M 5.0223528,12 C 5.6286,8.6978876 8.5224629,6.1955056 12,6.1955056 c 3.477537,0 6.370755,2.502382 6.977647,5.8044944 C 18.3714,15.302112 15.477537,17.804494 12,17.804494 8.5224629,17.804494 5.6292449,15.302112 5.0223528,12 Z M 12,15.224719 a 3.2247191,3.2247191 0 1 0 0,-6.4494381 3.2247191,3.2247191 0 0 0 0,6.4494381 z m 0,-1.289888 a 1.9348315,1.9348315 0 1 1 0,-3.869662 1.9348315,1.9348315 0 0 1 0,3.869662 z"
     id="path4"
     style="fill:#ffffff;fill-opacity:1;stroke-width:0.644944" />
</svg>
