<?xml version="1.0" encoding="UTF-8" standalone="no"?>
<svg
   xmlns:dc="http://purl.org/dc/elements/1.1/"
   xmlns:cc="http://creativecommons.org/ns#"
   xmlns:rdf="http://www.w3.org/1999/02/22-rdf-syntax-ns#"
   xmlns:svg="http://www.w3.org/2000/svg"
   xmlns="http://www.w3.org/2000/svg"
   xmlns:sodipodi="http://sodipodi.sourceforge.net/DTD/sodipodi-0.dtd"
   xmlns:inkscape="http://www.inkscape.org/namespaces/inkscape"
   viewBox="0 0 24 24"
   width="24"
   height="24"
   version="1.1"
   id="svg6"
   sodipodi:docname="delete-back-2-fill.svg"
   inkscape:version="1.0.1 (3bc2e813f5, 2020-09-07)">
  <metadata
     id="metadata12">
    <rdf:RDF>
      <cc:Work
         rdf:about="">
        <dc:format>image/svg+xml</dc:format>
        <dc:type
           rdf:resource="http://purl.org/dc/dcmitype/StillImage" />
      </cc:Work>
    </rdf:RDF>
  </metadata>
  <defs
     id="defs10" />
  <sodipodi:namedview
     pagecolor="#ffffff"
     bordercolor="#666666"
     borderopacity="1"
     objecttolerance="10"
     gridtolerance="10"
     guidetolerance="10"
     inkscape:pageopacity="0"
     inkscape:pageshadow="2"
     inkscape:window-width="1846"
     inkscape:window-height="1057"
     id="namedview8"
     showgrid="false"
     inkscape:zoom="13.110938"
     inkscape:cx="7.9188639"
     inkscape:cy="22.477778"
     inkscape:window-x="66"
     inkscape:window-y="-8"
     inkscape:window-maximized="1"
     inkscape:current-layer="svg6" />
  <path
     fill="none"
     d="M0 0h24v24H0z"
     id="path2" />
  <path
     d="M 15.66685,21 H 1.2018503 A -1,-1 0 0 1 0.20185035,20 V 4 A -1,-1 0 0 1 1.2018503,3 H 15.66685 a -1,-1 0 0 1 0.832,0.445 l 5.333,8 a -1,-1 0 0 1 0,1.11 l -5.333,8 A -1,-1 0 0 1 15.66685,21 Z m -6.4649997,-7.586 2.8279997,2.829 1.415,-1.415 -2.829,-2.828 2.829,-2.828 -1.415,-1.415 -2.8279997,2.829 -2.828,-2.829 -1.415,1.415 2.829,2.828 -2.829,2.828 1.415,1.415 z"
     id="path4"
     style="fill:#ffffff;fill-opacity:1" />
</svg>
